…
``` r
df_tidy <- df_normalized %>% 
  separate(date,
           into = c("year", "month", "day"),
           sep = "-", 
           remove = FALSE) %>% 
  mutate(year = as.integer(year), 
         month = as.integer(month), 
         day = as.integer(day))

df_tidy
```

    ## # A tibble: 1,832,858 × 12
    ##    date        year month   day county      state      fips  cases deaths population
    ##    <date>     <int> <int> <int> <chr>       <chr>      <chr> <dbl>  <dbl>      <dbl>
    ##  1 2020-01-21  2020     1    21 Snohomish   Washington 53061     1      0     786620
    ##  2 2020-01-22  2020     1    22 Snohomish   Washington 53061     1      0     786620
    ##  3 2020-01-23  2020     1    23 Snohomish   Washington 53061     1      0     786620
    ##  4 2020-01-24  2020     1    24 Cook        Illinois   17031     1      0    5223719
    ##  5 2020-01-24  2020     1    24 Snohomish   Washington 53061     1      0     786620
    ##  6 2020-01-25  2020     1    25 Orange      California 06059     1      0    3164182
    ##  7 2020-01-25  2020     1    25 Cook        Illinois   17031     1      0    5223719
    ##  8 2020-01-25  2020     1    25 Snohomish   Washington 53061     1      0     786620
    ##  9 2020-01-26  2020     1    26 Maricopa    Arizona    04013     1      0    4253913
    ## 10 2020-01-26  2020     1    26 Los Angeles California 06037     1      0   10098052
    ## # … with 1,832,848 more rows, and 2 more variables: cases_per100k <dbl>,
    ## #   deaths_per100k <dbl>
…
